[
    {
        "season": 23,
        "title": "Massive Yellow",
        "date": "March 6, 2025",
        "element": "Iron"
    },
    {
        "season": 22,
        "title": "Material Red",
        "date": "February 6, 2025",
        "element": "Fire"
    },
    {
        "season": 21,
        "title": "Greendernia",
        "date": "January 9, 2025",
        "element": "Wind"
    },
    {
        "season": 20,
        "title": "Whitelister",
        "date": "December 12, 2024",
        "element": "Water"
    },
    {
        "season": 19,
        "title": "Behemoth",
        "date": "November 8, 2024",
        "element": "Water"
    },
    {
        "season": 18,
        "title": "Land Eater",
        "date": "October 3, 2024",
        "element": "Fire"
    },
    {
        "season": 17,
        "title": "Massive Object",
        "date": "September 5, 2024",
        "element": "Wind"
    },
    {
        "season": 16,
        "title": "Mirror Container",
        "date": "August 2, 2024",
        "element": "Water"
    },
    {
        "season": 15,
        "title": "Golden Kraken",
        "date": "July 11, 2024",
        "element": "Iron"
    },
    {
        "season": 14,
        "title": "Grave Digger",
        "date": "June, 6, 2024",
        "element": "Electric"
    },
    {
        "season": 13,
        "title": "Indivilia",
        "date": "May 2, 2024",
        "element": "Electric"
    },
    {
        "season": 12,
        "title": "Nihilister",
        "date": "April 4, 2024",
        "element": "Fire"
    },
    {
        "season": 11,
        "title": "Storm Bringer",
        "date": "March 8, 2024",
        "element": "Wind"
    },
    {
        "season": 10,
        "title": "Crystal Chamber",
        "date": "February 9, 2024",
        "element": "Water"
    },
    {
        "season": 9,
        "title": "Material H",
        "date": "January 4, 2024",
        "element": "Iron"
    },
    {
        "season": 8,
        "title": "Chatterbox",
        "date": "December 8, 2023",
        "element": "Fire"
    },
    {
        "season": 7,
        "title": "Ultra",
        "date": "November 9, 2023",
        "element": "Electric"
    },
    {
        "season": 6,
        "title": "Modernia",
        "date": "October 12, 2023",
        "element": "Iron"
    },
    {
        "season": 5,
        "title": "White Smith",
        "date": "September 14, 2023",
        "element": "Wind"
    },
    {
        "season": 4,
        "title": "Alexander",
        "date": "August 10, 2023",
        "element": "Water"
    },
    {
        "season": 3,
        "title": "Harvester",
        "date": "July 13, 2023",
        "element": "Fire"
    },
    {
        "season": 2,
        "title": "Black Smith",
        "date": "June 8, 2023",
        "element": "Fire"
    },
    {
        "season": 1,
        "title": "Mother Whale",
        "date": "May 11, 2023",
        "element": "Water"
    }
]