[
  {
    "title": "Second Quest",
    "href": "https://nikke-goddess-of-victory-international.fandom.com/wiki/Second_Quest",
    "logo": "Second_Quest.png",
    "splash": "Second_Quest_splash_1.png",
    "start": "2025-02-20",
    "end": "2025-03-13",
    "description": "Second Quest is the 50th story event in Goddess of Victory: Nikke. It is also the 5th collab event, once again crossing over with the multimedia franchise Neon Genesis Evangelion."
  },
  {
    "title": "Romantic Valentine",
    "href": "https://nikke-goddess-of-victory-international.fandom.com/wiki/Romantic_Valentine",
    "logo": "Romantic_Valentine.png",
    "splash": "Romantic_Valentine_splash_1.png",
    "start": "2025-01-30",
    "end": "2025-02-19",
    "description": "Romantic Valentine is the 49th story event in Goddess of Victory: Nikke. The event centers around the protagonist, and his Valentine (mis)adventures as temporary manager of the Maid Cafe."
  },
  {
    "title": "Wisdom Spring",
    "href": "https://nikke-goddess-of-victory-international.fandom.com/wiki/Wisdom_Spring",
    "logo": "Wisdom_Spring.png",
    "splash": "Wisdom_Spring_splash_2.png",
    "start": "2025-01-16",
    "end": "2025-01-30",
    "description": "Wisdom Spring is the 48th story event in Goddess of Victory: Nikke. The event centers around Mana, and her mysterious disappearance after inviting the protagonist to M.M.R."
  },
  {
    "title": "Out of Uniform",
    "href": "https://nikke-goddess-of-victory-international.fandom.com/wiki/Out_of_Uniform",
    "logo": "Out_of_Uniform.png",
    "splash": "iki_udu_official_wong_raono_kok.png",
    "start": "2025-01-01",
    "end": "2025-01-16",
    "description": "Out of Uniform is a mini-event in Goddess of Victory: Nikke. It is also the New Year's event for 2025. The event centers around the members of School Circle and Dazzling Pearl, and their adventures during the New Year festivities."
  },
  {
    "title": "Footstep, Walk, Run",
    "href": "https://nikke-goddess-of-victory-international.fandom.com/wiki/Footstep,_Walk,_Run",
    "logo": "Footstep_2C_Walk_2C_Run.png",
    "splash": "Footstep_2C_Walk_2C_Run_splash_1.png",
    "start": "2024-12-26",
    "end": "2025-01-16",
    "description": "Footstep, Walk, Run is the 47th event in Goddess of Victory: Nikke. It is also the last event of 2024. The event follows the story of Rapi, who shares her recollections of the past, as a human and as a Nikke."
  },
  {
    "title": "Ice Dragon Saga",
    "href": "https://nikke-goddess-of-victory-international.fandom.com/wiki/Ice_Dragon_Saga",
    "logo": "Ice_Dragon_Saga.png",
    "splash": "Ice_Dragon_Saga_splash_3.png",
    "start": "2024-12-05",
    "end": "2024-12-26",
    "description": "Ice Dragon Saga is the 46th story event in Goddess of Victory: Nikke. The event centers around the grand(?) misadventures of Guillotine and her party."
  },
  {
    "title": "Secret Garden",
    "href": "https://nikke-goddess-of-victory-international.fandom.com/wiki/Secret_Garden",
    "logo": "Secret_Garden.png",
    "splash": "Secret_Garden_splash_2.png",
    "start": "2024-11-21",
    "end": "2024-12-05",
    "description": "Secret Garden is the 45th story event in Goddess of Victory: Nikke. The event centers around Flora and her efforts to preserve her garden."
  },
  {
    "title": "Old Tales",
    "href": "https://nikke-goddess-of-victory-international.fandom.com/wiki/Old_Tales_(event)",
    "logo": "Old_Tales.png",
    "splash": "Old_Tales_splash_3.png",
    "start": "2024-10-31",
    "end": "2024-11-21",
    "description": "Old Tales is the 44th event in Goddess of Victory: Nikke and the game's second-anniversary event. Old Tales takes place between Red Ash and Over Zone and primarily centered around the stories of the second-generation Grimms models during the First Rapture Invasion, most notably Cinderella who recollects the fate of her former squad as well as what she has become after turning into the Heretic otherwise known as Anachiro."
  },
  {
    "title": "Life Again",
    "href": "https://nikke-goddess-of-victory-international.fandom.com/wiki/Life_Again",
    "logo": "Life_Again.png",
    "splash": "Life_Again_splash_2.png",
    "start": "2024-10-17",
    "end": "2024-10-30",
    "description": "Life Again is the 43rd event in Goddess of Victory: Nikke. The event centers around Rumani and her struggles as a physical therapist for an uncooperative client."
  },
  {
    "title": "Phantom Thief vs Detective",
    "href": "https://nikke-goddess-of-victory-international.fandom.com/wiki/Phantom_Thief_vs_Detective",
    "logo": "Phantom_Thief_vs_Detective.png",
    "splash": "Phantom_Thief_Vs_Detective_splash_2.png",
    "start": "2024-10-03",
    "end": "2024-10-17",
    "description": "Phantom Thief vs Detective is the 42nd story event in Goddess of Victory: Nikke. The event centers around the escapades of Phantom and Quency as both thieves end up in the crosshairs of the authorities."
  },
  {
    "title": "Nonsense Red",
    "href": "https://nikke-goddess-of-victory-international.fandom.com/wiki/Nonsense_Red",
    "logo": "Nonsense_Red.png",
    "splash": "Nonsense_Red_Splash_1.png",
    "start": "2024-09-19",
    "end": "2024-10-30",
    "description": "Nonsense Red is a mini-event in Goddess of Victory: Nikke. While the gameplay is similar to such events like First Affection or Liar's End, the duration is much longer than previous. The event centers around Red Hood, and Rapunzel reminiscing about her old friend."
  },
  {
    "title": "Jinx Player",
    "href": "https://nikke-goddess-of-victory-international.fandom.com/wiki/Jinx_Player",
    "logo": "Jinx_Player.png",
    "splash": "Jinx_Player_splash_2.png",
    "start": "2024-09-19",
    "end": "2024-10-03",
    "description": "Jinx Player is an event in Goddess of Victory: Nikke and the 41st story event. The event centers around Rouge and her struggles with bad luck."
  },
  {
    "title": "You Can (Not) Evade",
    "href": "https://nikke-goddess-of-victory-international.fandom.com/wiki/You_Can_(Not)_Evade",
    "logo": "You_Can__28Not_29_Evade.png",
    "splash": "You_Can__28Not_29_Evade_splash_2.png",
    "start": "2024-08-22",
    "end": "2024-09-19",
    "description": "You Can (Not) Evade is the 40th story event in Goddess of Victory: Nikke, and the 4th collab event, this one with the multimedia franchise Neon Genesis Evangelion."
  },
  {
    "title": "Colorless",
    "href": "https://nikke-goddess-of-victory-international.fandom.com/wiki/Colorless",
    "logo": "Colorless.png",
    "splash": "Colorless_splash_2.png",
    "start": "2024-08-08",
    "end": "2024-08-21",
    "description": "Colorless is the 39th event in Goddess of Victory: Nikke. The event centers around Zwei's struggles with her lack of a dream."
  },
  {
    "title": "Juvenile Days",
    "href": "https://nikke-goddess-of-victory-international.fandom.com/wiki/Juvenile_Days",
    "logo": "Juvenile_Days.png",
    "splash": "Juvenile_Days_splash_2.png",
    "start": "2024-07-25",
    "end": "2024-08-08",
    "description": "Juvenile Days is the 38th story event in Goddess of Victory: Nikke. The event centers around Ein's struggles to make genuine friends."
  },
  {
    "title": "Beauty Full Shot",
    "href": "https://nikke-goddess-of-victory-international.fandom.com/wiki/Beauty_Full_Shot",
    "logo": "Beauty_Full_Shot.png",
    "splash": "Beauty_Full_Shot_splash_1.png",
    "start": "2024-07-04",
    "end": "2024-07-25",
    "description": "Beauty Full Shot is the 37th story event in Goddess of Victory: Nikke, and the summer event for 2024. The event centers around Sakura and Rosanna getting dragged into a summer photoshoot."
  },
  {
    "title": "Clay, More!",
    "href": "https://nikke-goddess-of-victory-international.fandom.com/wiki/Clay,_More!",
    "logo": "Clay_2C_More_21.png",
    "splash": "Clay_2C_More_21_splash_2.png",
    "start": "2024-06-20",
    "end": "2024-07-03",
    "description": "Clay, More! is the 36th story event in Goddess of Victory: Nikke. The event centers around Clay's struggles as Rewind's sole representative."
  },
  {
    "title": "Golden Coin Rush",
    "href": "https://nikke-goddess-of-victory-international.fandom.com/wiki/Golden_Coin_Rush",
    "logo": "Golden_Coin_Rush.png",
    "splash": "Golden_Coin_Rush_splash_2.png",
    "start": "2024-05-30",
    "end": "2024-06-20",
    "description": "Golden Coin Rush is the 35th story event in Goddess of Victory: Nikke. The event centers around Soda and Alice's (mis)adventures during a special event at Coin Rush."
  },
  {
    "title": "D.ark Hero",
    "href": "https://nikke-goddess-of-victory-international.fandom.com/wiki/D.ark_Hero",
    "logo": "D.ark_Hero.png",
    "splash": "D.ark_Hero_splash_2.png",
    "start": "2024-05-16",
    "end": "2024-05-30",
    "description": "D.ark Hero is the 34th story event in Goddess of Victory: Nikke. The event is a sequel to Booms Day, detailing Trony's attempts to socialize after the Gaming Expo."
  },
  {
    "title": "Last Kingdom",
    "href": "https://nikke-goddess-of-victory-international.fandom.com/wiki/Last_Kingdom",
    "logo": "Last_Kingdom.png",
    "splash": "Last_Kingdom_splash_2.png",
    "start": "2024-04-25",
    "end": "2024-05-16",
    "description": "Last Kingdom is an event in Goddess of Victory: Nikke. It is the 33rd story event, and the event for the game's 1.5 Year Anniversary. The story revolves around the White Knights, and their attempts to safeguard their kingdom."
  },
  {
    "title": "One More Time",
    "href": "https://nikke-goddess-of-victory-international.fandom.com/wiki/One_More_Time",
    "logo": "One_More_Time.png",
    "splash": "One_More_Time_splash_2.png",
    "start": "2024-04-11",
    "end": "2024-04-23",
    "description": "One More Time is the 32nd event in Goddess of Victory: Nikke. The story revolves around Bay trying to win a cheerleading contest, even after a massive setback early into the competition."
  },
  {
    "title": "Liar's End",
    "href": "https://nikke-goddess-of-victory-international.fandom.com/wiki/Liar%27s_End",
    "logo": "Liar%27s_End.png",
    "splash": "Liar_27s_End_logo.png",
    "start": "2024-04-01",
    "end": "2024-04-04",
    "description": "Liar's End is a 3-day event in Goddess of Victory: Nikke, and is the April Fools' event for 2024 The event is centered around the protagonist's April Fools' shenanigans, this time dragging Syuen into the mix."
  },
  {
    "title": "Re:CIPE FOR YOU",
    "href": "https://nikke-goddess-of-victory-international.fandom.com/wiki/Re:CIPE_FOR_YOU",
    "logo": "Re-CIPE_FOR_YOU.png",
    "splash": "Re-CIPE_FOR_YOU_splash_3.png",
    "start": "2024-03-21",
    "end": "2024-04-11",
    "description": "Re:CIPE FOR YOU is an event in Goddess of Victory: Nikke. It is the 31st story event, and the game's 3rd collab event, this one with the light novel series Re:Zero The event is centered around Emilia, Rem, and Ram trying to collect items and find a way home."
  },
  {
    "title": "Kill the Lord",
    "href": "https://nikke-goddess-of-victory-international.fandom.com/wiki/Kill_the_Lord",
    "logo": "Kill_the_Lord.png",
    "splash": "Kill_the_Lord_splash_2.png",
    "start": "2024-03-07",
    "end": "2024-03-20",
    "description": "Kill the Lord is the 30th story event in Goddess of Victory: Nikke. The event is centered around Perilous Siege investigating a string of mysterious disappearances."
  },
  {
    "title": "Booms Day",
    "href": "https://nikke-goddess-of-victory-international.fandom.com/wiki/Booms_Day",
    "logo": "Booms_Day.png",
    "splash": "Booms_Day_splash_2.png",
    "start": "2024-02-22",
    "end": "2024-03-06",
    "description": "Booms Day is the 29th story event event in Goddess of Victory: Nikke. The event is centered around the new character Elegg, inviting a friend of hers to the Ark Gaming Expo."
  },
  {
    "title": "Perfect Maid",
    "href": "https://nikke-goddess-of-victory-international.fandom.com/wiki/Perfect_Maid",
    "logo": "Perfect_Maid.png",
    "splash": "Perfect_Maid_splash_2.png",
    "start": "2024-02-05",
    "end": "2024-02-22",
    "description": "Perfect Maid in the 28th event in Goddess of Victory: Nikke. The event is centered around Ade and Privaty, who are both contending with their own troubles for Valentine's Day."
  },
  {
    "title": "Dirty Backyard",
    "href": "https://nikke-goddess-of-victory-international.fandom.com/wiki/Dirty_Backyard",
    "logo": "Dirty_Backyard.png",
    "splash": "Dirty_Backyard_splash_2.png",
    "start": "2024-01-25",
    "end": "2024-02-08",
    "description": "Dirty Backyard is the 27th story event in Goddess of Victory: Nikke. The event centers around Moran trying to clear her name after being framed for murder."
  },
  {
    "title": "Lion Heart",
    "href": "https://nikke-goddess-of-victory-international.fandom.com/wiki/Lion_Heart",
    "logo": "Lion_Heart.png",
    "splash": "Lion_Heart_splash_2.png",
    "start": "2024-01-11",
    "end": "2024-01-25",
    "description": "Lion Heart is the 26th story event in Goddess of Victory: Nikke. It is also the first event of 2024. The event primarily focuses on Leona and Happy Zoo enjoying an unexpected break."
  },
  {
    "title": "New Year, New Sword",
    "href": "https://nikke-goddess-of-victory-international.fandom.com/wiki/New_Year,_New_Sword",
    "logo": "New_Year%2C_New_Sword.png",
    "splash": "New_Year_2C_New_Sword_splash_1.png",
    "start": "2023-12-28",
    "end": "2024-01-11",
    "description": "New Year, New Sword is an 25th story event in Goddess of Victory: Nikke, and the New Year's event for 2024, as well as the last event for 2023. The event is centered around Scarlet, reminiscing on the erstwhile days she spent with her late sister, Rose and her life before joining the Goddess squad."
  },
  {
    "title": "NEVERLAND",
    "href": "https://nikke-goddess-of-victory-international.fandom.com/wiki/NEVERLAND",
    "logo": "NEVERLAND.png",
    "splash": "NEVERLAND_splash_2.png",
    "start": "2023-12-07",
    "end": "2023-12-28",
    "description": "NEVERLAND is an event in Goddess of Victory: Nikke. It is both the 24th story event and the 2023 Christmas event. According to a letter from the developers, the event's story will be fully voiced. The event follows the story of the commander who must explore the north regarding a hot spring."
  },
  {
    "title": "Alone Survivor",
    "href": "https://nikke-goddess-of-victory-international.fandom.com/wiki/Alone_Survivor",
    "logo": "Alone_Survivor.png",
    "splash": "Alone_Survivor_splash_2.png",
    "start": "2023-11-23",
    "end": "2023-12-07",
    "description": "Alone Survivor is the 23rd story event in Goddess of Victory: Nikke. The event is centered around Tove, the newest recruit to Unlimited."
  },
  {
    "title": "Happy 1st Anniversary",
    "href": "https://nikke-goddess-of-victory-international.fandom.com/wiki/Happy_1st_Anniversary",
    "logo": "Happy_1st_Anniversary.png",
    "splash": "Happy_1st_Anniversary_splash_1.png",
    "start": "2023-11-02",
    "end": "2023-11-23",
    "description": "Happy 1st Anniversary is an event in Goddess of Victory: Nikke. It follows a format similarly to the likes of Full Fool Day and First Affection. The event is specifically created to commemorate the first anniversary of the game's release on November 4, 2022."
  },
  {
    "title": "Red Ash",
    "href": "https://nikke-goddess-of-victory-international.fandom.com/wiki/Red_Ash",
    "logo": "Red_Ash.png",
    "splash": "Red_Ash_splash_1.png",
    "start": "2023-11-02",
    "end": "2023-11-23",
    "description": "Red Ash (also known as RE:DASH) is an event in Goddess of Victory: Nikke. It is the 22nd overall story event, and the event for the game's 1st anniversary. Like Over Zone, Red Ash is set decades before the main storyline of Goddess of Victory: Nikke during the First Rapture Invasion, and focuses on the legendary Goddess squad, more specifically on both Red Hood and Snow White."
  },
  {
    "title": "A.C.P.U.! FREEZE!",
    "href": "https://nikke-goddess-of-victory-international.fandom.com/wiki/A.C.P.U.!_FREEZE!",
    "logo": "A.C.P.U.%21_FREEZE%21.png",
    "splash": "A.C.P.U._21_FREEZE_21_splash_2.png",
    "start": "2023-10-19",
    "end": "2023-11-01",
    "description": "A.C.P.U.! FREEZE! is the 21st story event in Goddess of Victory: Nikke. The event takes place during Halloween and follows the story of Quiry, who must track down a culprit who produce suspicious candies."
  },
  {
    "title": "Dazzling Cupid",
    "href": "https://nikke-goddess-of-victory-international.fandom.com/wiki/Dazzling_Cupid",
    "logo": "Dazzling_Cupid.png",
    "splash": "Dazzling_Cupid_splash_2.png",
    "start": "2023-10-05",
    "end": "2023-10-19",
    "description": "Dazzling Cupid is the 20th story event in Goddess of Victory: Nikke. It follows the Protagonist, who shares a dilemma of choosing a date between either Naga or Tia."
  },
  {
    "title": "School of Lock",
    "href": "https://nikke-goddess-of-victory-international.fandom.com/wiki/School_of_Lock",
    "logo": "School_of_Lock.png",
    "splash": "School_of_Lock_splash_2.png",
    "start": "2023-09-21",
    "end": "2023-10-05",
    "description": "School of Lock is the 19th story event in Goddess of Victory: Nikke. This event focuses on Marciana, an M.M.R. teacher who is assigned to monitor her students for an exam."
  },
  {
    "title": "OuteR: Automata",
    "href": "https://nikke-goddess-of-victory-international.fandom.com/wiki/OuteR:_Automata",
    "logo": "OuteR_Automata.png",
    "splash": "OuteR_Automata_splash_2.png",
    "start": "2023-09-01",
    "end": "2023-09-28",
    "description": "OuteR: Automata is an event of Goddess of Victory: Nikke. It is the 18th overall story event, and the 2nd collaboration event, this time with the 2017 video game Nier: Automata. On the trail of a D-Wave outbreak, the protagonist and Counters are unexpectedly waylaid, and are only pulled out of the fire by mysterious robots from another world..."
  },
  {
    "title": "First Affection",
    "href": "https://nikke-goddess-of-victory-international.fandom.com/wiki/First_Affection",
    "logo": "First_Affection.png",
    "splash": "First_Affection_splash_1.png",
    "start": "2023-08-24",
    "end": "2023-08-31",
    "description": "First Affection is a 7-day event in Goddess of Victory: Nikke. Similar to the likes of Full Fool Day, this event plays more like a series of specific event missions rather than the traditional event format. It follows the story of Modernia, during one of the times when she still lived at the Outpost."
  },
  {
    "title": "Sea, You, Again",
    "href": "https://nikke-goddess-of-victory-international.fandom.com/wiki/Sea,_You,_Again",
    "logo": "Sea%2C_You%2C_Again.png",
    "splash": "Sea_2C_You_2C_Again_splash_2.png",
    "start": "2023-08-03",
    "end": "2023-08-24",
    "description": "Sea, You, Again is the 17th event in Goddess of Victory: Nikke. A sequel to the event Blue Water Island, the protagonist returns to the idyllic tropics in pursuit of a strange signal. However unbeknownst to them, this signal belongs to a giant Rapture that lurks in the depths."
  },
  {
    "title": "Golden Ship",
    "href": "https://nikke-goddess-of-victory-international.fandom.com/wiki/Golden_Ship",
    "logo": "Golden_Ship.png",
    "splash": "Golden_Ship_splash_2.png",
    "start": "2023-07-20",
    "end": "2023-08-03",
    "description": "Golden Ship is the 16th story event in Goddess of Victory: Nikke. The event is centered around Mast, who is on the hunt for forgotten pirate treasure."
  },
  {
    "title": "Nya Nya Paradise",
    "href": "https://nikke-goddess-of-victory-international.fandom.com/wiki/Nya_Nya_Paradise",
    "logo": "Nya_Nya_Paradise.png",
    "splash": "Nya_Nya_Paradise_splash_2.png",
    "start": "2023-07-06",
    "end": "2023-07-20",
    "description": "Nya Nya Paradise is the 15th story event for Goddess of Victory: Nikke. Nya Nya Paradise follows the story of Nero who must shelter a stray cat, however it refuses to enter the shelter."
  },
  {
    "title": "Blue Water Island",
    "href": "https://nikke-goddess-of-victory-international.fandom.com/wiki/Blue_Water_Island",
    "logo": "Blue_Water_Island.png",
    "splash": "Blue_Water_Island_splash_1.png",
    "start": "2023-06-15",
    "end": "2023-07-06",
    "description": "Blue Water Island is the 14th story event in Goddess of Victory: Nikke, and the summer event of 2023. Blue Water Island takes place in the titular remote island where a group of Nikke squads are assigned in an operation during the summers. Its story is continued by Sea, You, Again in August 3, 2023"
  },
  {
    "title": "Queen's Order",
    "href": "https://nikke-goddess-of-victory-international.fandom.com/wiki/Queen%27s_Order",
    "logo": "Queen%27s_Order.png",
    "splash": "Queen_27s_Order_splash_2.png",
    "start": "2023-06-01",
    "end": "2023-06-15",
    "description": "Queen's Order is the 13th story event for Goddess of Victory: Nikke. Queen's Order follows the story of Rosanna, the leader of Hedonia who must track down the culprit of an attempted assassination via bombing."
  },
  {
    "title": "Bunny X 777",
    "href": "https://nikke-goddess-of-victory-international.fandom.com/wiki/Bunny_X_777",
    "logo": "Bunny_X_777.png",
    "splash": "Bunny_X_777_splash_1.png",
    "start": "2023-05-18",
    "end": "2023-06-01",
    "description": "Bunny X 777 is the 12th story event for Goddess of Victory: Nikke. Bunny X 777 is set in Coin Rush, the Ark's casino resort. It follows the story of the titular 777 squad who are offering a kiss from the twin sisters as a grand prize. However, they set their sights for the commander to win the special event instead."
  },
  {
    "title": "Over Zone",
    "href": "https://nikke-goddess-of-victory-international.fandom.com/wiki/Over_Zone",
    "logo": "Over_Zone.png",
    "splash": "Over_Zone_splash_2.png",
    "start": "2023-04-27",
    "end": "2023-05-18",
    "description": "Over Zone is the 11th story event of Goddess of Victory: Nikke. Over Zone is set decades before the main storyline of Goddess of Victory: Nikke. It follows the story of Goddess squad's efforts to secure the safety of humanity in Operation Ark Guardian and the squad's eventual downfall at the end. The story more specifically focuses on Dorothy."
  },
  {
    "title": "License to Kill",
    "href": "https://nikke-goddess-of-victory-international.fandom.com/wiki/License_to_Kill",
    "logo": "License_to_Kill.png",
    "splash": "License_to_Kill_splash_2.png",
    "start": "2023-04-13",
    "end": "2023-04-27",
    "description": "License to Kill is the 10th story event in Goddess of Victory: Nikke. License to Kill follows the story of Perilous Siege and the commander who must work undercover to apprehend the corrupt CEO of Cycle of Life."
  },
  {
    "title": "Full Fool Day",
    "href": "https://nikke-goddess-of-victory-international.fandom.com/wiki/Full_Fool_Day",
    "logo": "Full_Fool_Day.png",
    "splash": "Event_Banner_Full_Fool_Day.png",
    "start": "2023-04-01",
    "end": "2023-04-01",
    "description": "Full Fool Day is a one-shot event in Goddess of Victory: Nikke. It was made specifically to celebrate April Fools Day, hence it follows the story of Shifty who was tasked in a mission up the surface to commemorate April 1st."
  },
  {
    "title": "Cherry Blossom",
    "href": "https://nikke-goddess-of-victory-international.fandom.com/wiki/Cherry_Blossom",
    "logo": "Cherry_Blossom.png",
    "splash": "Cherry_Blossom_splash_2.png",
    "start": "2023-03-30",
    "end": "2023-04-13",
    "description": "Cherry Blossom is the 9th event in Goddess of Victory: Nikke. It follows the story of Sakura, the leader of Seimeikai who sets up a fake wedding with the commander during the cherry blossom festival."
  },
  {
    "title": "Bow-Wow Paradise",
    "href": "https://nikke-goddess-of-victory-international.fandom.com/wiki/Bow-Wow_Paradise",
    "logo": "Bow-Wow_Paradise.png",
    "splash": "Bow-Wow_Paradise_splash_2.png",
    "start": "2023-03-15",
    "end": "2023-03-29",
    "description": "Bow-Wow Paradise is the 8th story event for Goddess of Victory: Nikke. Bow-Wow Paradise details the story of Biscuit who must recapture all the escaped dogs from their cages, causing ruckus amongst the citizens of the Ark."
  },
  {
    "title": "BULLET X CHAINSAW",
    "href": "https://nikke-goddess-of-victory-international.fandom.com/wiki/BULLET_X_CHAINSAW",
    "logo": "BULLET_X_CHAINSAW.png",
    "splash": "BULLET_X_CHAINSAW_splash_1.png",
    "start": "2023-02-22",
    "end": "2023-03-15",
    "description": "BULLET X CHAINSAW is the 7th event overall for Goddess of Victory: Nikke, and the game's 1st collaboration event, featuring characters from the anime/manga series Chainsaw Man. BULLET X CHAINSAW is set on an unknown time period where the Counters squad must collude with a newfound ally known as the \"Devil Hunters.\" This event also introduces the \"manufacturers\" Abnormal, which seems to be a designation made solely for collaboration characters"
  },
  {
    "title": "Maid in Valentine",
    "href": "https://nikke-goddess-of-victory-international.fandom.com/wiki/Maid_in_Valentine",
    "logo": "Maid_in_Valentine.png",
    "splash": "Maid_in_Valentine_splash_2.png",
    "start": "2023-02-01",
    "end": "2023-02-15",
    "description": "Maid in Valentine is the 6th story event in Goddess of Victory: Nikke. Maid in Valentine oversees the story of the Maid For You squad who are assigned by Mustang, the CEO of Tetra Line to create the ultimate \"Valentine's Day chocolate\" after numerous disastrous attempts to make one."
  },
  {
    "title": "D-Outsiders",
    "href": "https://nikke-goddess-of-victory-international.fandom.com/wiki/D-Outsiders",
    "logo": "D-Outsiders.png",
    "start": "2023-01-12",
    "splash": "D-Outsiders_splash_3.png",
    "end": "2023-01-25",
    "description": "D-Outsiders is the 5th story event of Goddess of Victory: Nikke and the first event of 2023. D-Outsiders is set in the Outer Rim, following the story of Exotic squad who are given a \"do or die\" mission to investigate a terrorist attack in the Dome of Eternity perpetrated by the Heavenly Ascension."
  },
  {
    "title": "Brand New Year",
    "href": "https://nikke-goddess-of-victory-international.fandom.com/wiki/Brand_New_Year",
    "logo": "Brand_New_Year.png",
    "splash": "Brand_New_Year_splash_3.png",
    "start": "2022-12-28",
    "end": "2023-01-11",
    "description": "Brand New Year is the 4th story event of Goddess of Victory: Nikke, as well as the last event of 2022. Brand New Year is set in the Admire, a naval ship owned by the Aegis squad. It follows the story of Helm who offers a New Year party to the commander to celebrate a brand new year."
  },
  {
    "title": "Miracle Snow",
    "href": "https://nikke-goddess-of-victory-international.fandom.com/wiki/Miracle_Snow",
    "logo": "Miracle_Snow.png",
    "splash": "Miracle_Snow_splash_1.png",
    "start": "2022-12-08",
    "end": "2022-12-28",
    "description": "Miracle Snow is the 3rd story event of Goddess of Victory: Nikke. It functions as the Christmas event for 2022. Miracle Snow sets in Christmas Eve and tells the story of both Rupee and Anne who seeks for the latter's mother."
  },
  {
    "title": "Hightech Toy",
    "href": "https://nikke-goddess-of-victory-international.fandom.com/wiki/Hightech_Toy",
    "logo": "Hightech_Toy.png",
    "splash": "Hightech_Toy_splash_1.png",
    "start": "2022-11-24",
    "end": "2022-12-08",
    "description": "Failed to get data."
  },
  {
    "title": "No Caller ID",
    "href": "https://nikke-goddess-of-victory-international.fandom.com/wiki/No_Caller_ID",
    "logo": "No_Caller_ID.png",
    "splash": "No_Caller_ID_splash_1.png",
    "start": "2022-11-10",
    "end": "2022-11-24",
    "description": "Failed to get data."
  }
]