[
    {
        "date": "February 20, 2025",
        "title": "Redsea Scout",
        "inside": "Second Quest",
        "genre": "Bullet hell",
        "logo": "Redsea_Scout_logo.png"
    },
    {
        "date": "January 30, 2025",
        "title": "Pirate Cafe",
        "inside": "Romantic Valentine",
        "genre": "Strategy/time management",
        "logo": "Pirate_Cafe_logo.png"
    },
    {
        "date": "December 5, 2024",
        "title": "Dragon Dungeon Run",
        "inside": "Ice Dragon Saga",
        "genre": "Endless runner",
        "logo": "Dragon_Dungeon_Run_logo.png"
    },
    {
        "date": "October 31, 2024",
        "title": "In The Mirror",
        "inside": "Old Tales",
        "genre": "Metroidvania/Platformer",
        "logo": "In_The_Mirror_logo.png"
    },
    {
        "date": "August 22, 2024",
        "title": "Battle Simulator",
        "inside": "You Can (Not) Evade",
        "genre": "Strategy",
        "logo": "Battle_Simulator_logo.png"
    },
    {
        "date": "July 4, 2024",
        "title": "Aegis the Diver",
        "inside": "Beauty Full Shot",
        "genre": "Adventure",
        "logo": "Aegis_the_Diver_logo.png"
    },
    {
        "date": "July 4, 2024",
        "title": "Coral Island Adventure",
        "inside": "Beauty Full Shot",
        "genre": "Rhythm and Photography",
        "logo": "Coral_Island_Adventure_logo.png"
    },
    {
        "date": "May 30, 2024",
        "title": "Let's Play Soda",
        "inside": "Golden Coin Rush",
        "genre": "Various",
        "logo": "Let's_Play_Soda_logo.png"
    },
    {
        "date": "April 25, 2024",
        "title": "For the King",
        "inside": "Last Kingdom",
        "genre": "Tower defense",
        "logo": "For_the_King_logo.png"
    },
    {
        "date": "March 21, 2024",
        "title": "Re-ADY TO ORDER",
        "inside": "Re:CIPE FOR YOU",
        "genre": "Strategy/Time management",
        "logo": "Re-ADY_TO_ORDER_logo.png"
    },
    {
        "date": "February 5, 2024",
        "title": "Dessert Rush",
        "inside": "Perfect Maid",
        "genre": "Clicker game",
        "logo": "Dessert_Rush_logo.png"
    },
    {
        "date": "December 7, 2023",
        "title": "Snowfall Oasis",
        "inside": "NEVERLAND",
        "genre": "Visual novel",
        "logo": "Snowfall_Oasis_logo.png"
    },
    {
        "date": "November 2, 2023",
        "title": "Memory of Goddess",
        "inside": "Red Ash",
        "genre": "Rogue-like shoot 'em up",
        "logo": "Memory_of_Goddess_logo.png"
    },
    {
        "date": "September 1, 2023",
        "title": "Hacking Game",
        "inside": "OuteR: Automata",
        "genre": "Shoot 'em up/puzzle",
        "logo": "Hacking_Game_icon.png"
    },
    {
        "date": "August 3, 2023",
        "title": "BBQ Master",
        "inside": "Sea, You, Again",
        "genre": "Strategy/Time management",
        "logo": "BBQ_Master_logo.png"
    },
    {
        "date": " June 15, 2023",
        "title": "Volt Road",
        "inside": "Blue Water Island",
        "genre": "Board game",
        "logo": "Volt_Road_logo.png"
    },
    {
        "date": "April 27, 2023",
        "title": "White Memory",
        "inside": "Over Zone",
        "genre": "Visual novel",
        "logo": "White_Memory_logo.png"
    },
    {
        "date": "December 8, 2022",
        "title": "Gift Factory",
        "inside": "Miracle Snow",
        "genre": "Clicker game",
        "logo": "Gift_Factory_logo.png"
    },
    {
        "date": "November 24, 2022",
        "title": "Hero Road",
        "inside": "Hightech Toy",
        "genre": "Board game",
        "logo": "Hero_Road_logo.png"
    }
]